{
  "images" : [
    {
      "idiom" : "universal",
      "scale" : "1x",
      "filename" : "scan-code_btn_flashlight.png"
    },
    {
      "idiom" : "universal",
      "scale" : "2x",
      "filename" : "scan-code_btn_flashlight@2x.png"
    },
    {
      "idiom" : "universal",
      "scale" : "3x",
      "filename" : "scan-code_btn_flashlight@3x.png"
    }
  ],
  "info" : {
    "version" : 1,
    "author" : "xcode"
  }
}