{
    "ableToPlayBeanGame": true,
    "mbeanSpecials": [
                      {
                      "timeRemaining": 1244,
                      "message": "限量500件\n每天10:00开放！",
                      "image": "http://url.to.image/",
                      "templateId": 250,
                      "mbeanPrice": 2500,
                      "soldOut": false
                      }
                      ],
    "mbeanBalance": 38,
    "shops": [
              {
              "shopId": 38,
              "image": "http://url.to.image",
              "shopName": "你是猪",
              "distance": 250,
              "brandImages": [
                              "http://url.to.image",
                              "http://url.to.image",
                              "http://url.to.image"
                              ],
              "tag": 9
              },
              {
              "shopId": 38,
              "image": "http://url.to.image",
              "shopName": "你是猪",
              "distance": 250,
              "brandImages": [
                              "http://url.to.image",
                              "http://url.to.image",
                              "http://url.to.image"
                              ],
              "tag": 9
              },
              {
              "shopId": 38,
              "image": "http://url.to.image",
              "shopName": "你是猪",
              "distance": 250,
              "brandImages": [
                              "http://url.to.image",
                              "http://url.to.image",
                              "http://url.to.image"
                              ],
              "tag": 9
              }
              ],
    "customerCount": 250250000,
    "customers": [
                  {
                  "avatar": "http://url.to.image",
                  "distance": 38
                  },
                  {
                  "avatar": "http://url.to.image",
                  "distance": 38
                  },
                  {
                  "avatar": "http://url.to.image",
                  "distance": 38
                  },
                  {
                  "avatar": "http://url.to.image",
                  "distance": 38
                  },
                  {
                  "avatar": "http://url.to.image",
                  "distance": 38
                  },
                  {
                  "avatar": "http://url.to.image",
                  "distance": 38
                  },
                  {
                  "avatar": "http://url.to.image",
                  "distance": 38
                  }
                  ],
    "mamhaoFeatured": [
                       {
                       "image": "http://url.to.image",
                       "type": 4,
                       "parameters": "a JSON string"
                       }
                       ],
    "userFeatured": [
                     {
                     "userId": 25,
                     "nickname": "你亲家",
                     "avatar": "http://url.to.image",
                     "monthAge": 25,
                     "timestamp": 19438250,
                     "content": "经比较个人认为是假货！！！！！瓶底字迹粗糙，刻度印刷不精细，我买的160ml的奶瓶瓶底字迹清晰精致，刻度印刷很精细，水也有5ml差别，是一开始我们月嫂发现怎么一个奶瓶加100的水倒另一个奶瓶就变105了，我把两个奶瓶拿来一比，有很明显区别，160那个看起来就要正规很多",
                     "images": [
                                "http://url.to.image",
                                "http://url.to.other.image"
                                ],
                     "boughtCount": 10382,
                     "likedCount": 40001,
                     "liked": true,
                     "templateId": 250
                     },
                     {
                     "userId": 25,
                     "nickname": "你亲家",
                     "avatar": "http://url.to.image",
                     "monthAge": 25,
                     "timestamp": 19438250,
                     "content": "经比较个人认为是假货！！！！！瓶底字迹粗糙，刻度印刷不精细，我买的160ml的奶瓶瓶底字迹清晰精致，刻度印刷很精细，水也有5ml差别，是一开始我们月嫂发现怎么一个奶瓶加100的水倒另一个奶瓶就变105了，我把两个奶瓶拿来一比，有很明显区别，160那个看起来就要正规很多",
                     "images": [
                                "http://url.to.image",
                                "http://url.to.other.image"
                                ],
                     "boughtCount": 10382,
                     "likedCount": 40001,
                     "liked": false,
                     "templateId": 250
                     },
                     {
                     "userId": 25,
                     "nickname": "你亲家",
                     "avatar": "http://url.to.image",
                     "monthAge": 25,
                     "timestamp": 19438250,
                     "content": "经比较个人认为是假货！！！！！瓶底字迹粗糙，刻度印刷不精细，我买的160ml的奶瓶瓶底字迹清晰精致，刻度印刷很精细，水也有5ml差别，是一开始我们月嫂发现怎么一个奶瓶加100的水倒另一个奶瓶就变105了，我把两个奶瓶拿来一比，有很明显区别，160那个看起来就要正规很多",
                     "images": [
                                "http://url.to.image",
                                "http://url.to.other.image"
                                ],
                     "boughtCount": 10382,
                     "likedCount": 40001,
                     "liked": true,
                     "templateId": 250
                     }
                     ],
    "products": {
        "monthAge": 18,
        "featured": [
                     {
                     "templateId": 250,
                     "image": "http://url.to.image",
                     "distance": 250,
                     "name": "PHILIPS飞利浦HX6730/02 Sonicare HealthyWhite充电式音波震动牙刷(雾白) ",
                     "price": 194250.38,
                     "soldCount": 194250,
                     "tags": [
                              2,
                              5,
                              0
                              ]
                     }
                     ],
        "food": [
                 {
                 "templateId": 250,
                 "image": "http://url.to.image",
                 "distance": 250,
                 "name": "PHILIPS飞利浦HX6730/02 Sonicare HealthyWhite充电式音波震动牙刷(雾白) ",
                 "price": 194250.38,
                 "soldCount": 194250,
                 "tags": [
                          2,
                          5,
                          0
                          ]
                 }
                 ],
        "toy": [
                {
                "templateId": 250,
                "image": "http://url.to.image",
                "distance": 250,
                "name": "PHILIPS飞利浦HX6730/02 Sonicare HealthyWhite充电式音波震动牙刷(雾白) ",
                "price": 194250.38,
                "soldCount": 194250,
                "tags": [
                         2,
                         5,
                         0
                         ]
                }
                ],
        "using": [
                  {
                  "templateId": 250,
                  "image": "http://url.to.image",
                  "distance": 250,
                  "name": "PHILIPS飞利浦HX6730/02 Sonicare HealthyWhite充电式音波震动牙刷(雾白) ",
                  "price": 194250.38,
                  "soldCount": 194250,
                  "tags": [
                           2,
                           5,
                           0
                           ]
                  }
                  ],
        "education": [
                      {
                      "templateId": 250,
                      "image": "http://url.to.image",
                      "distance": 250,
                      "name": "PHILIPS飞利浦HX6730/02 Sonicare HealthyWhite充电式音波震动牙刷(雾白) ",
                      "price": 194250.38,
                      "soldCount": 194250,
                      "tags": [
                               2,
                               5,
                               0
                               ]
                      }
                      ],
        "forMom": [
                   {
                   "templateId": 250,
                   "image": "http://url.to.image",
                   "distance": 250,
                   "name": "PHILIPS飞利浦HX6730/02 Sonicare HealthyWhite充电式音波震动牙刷(雾白) ",
                   "price": 194250.38,
                   "soldCount": 194250,
                   "tags": [
                            2,
                            5,
                            0
                            ]
                   }
                   ]
    }
}